{
  "$schema": "./node_modules/nx/schemas/workspace-schema.json",
  "version": 2,
  "projects": {
    "auth": "apps/auth",
    "auth-e2e": "apps/auth-e2e",
    "dashboards": "apps/dashboards",
    "dashboards-e2e": "apps/dashboards-e2e",
    "finance": "apps/finance",
    "finance-e2e": "apps/finance-e2e",
    "root": "apps/root",
    "root-e2e": "apps/root-e2e",
    "shared": "libs/shared"
  }
}
